{
  "name": "pwshfetch-devcontainer",
  "image": "mcr.microsoft.com/devcontainers/dotnet:1-7.0-bullseye",
  "customizations": {
    "vscode": {
      "extensions": [
        "EditorConfig.EditorConfig",
        "esbenp.prettier-vscode",
        "ms-vscode.powershell"
      ]
    }
  },
  "portsAttributes": {},
  "remoteUser": "vscode"
}
